^C:\USERS\LESHA\SOURCE\REPOS\DZ\DZ\DEBUG\DZ.OBJ
/OUT:"C:\USERS\LESHA\SOURCE\REPOS\DZ\DEBUG\DZ.EXE" /INCREMENTAL /ILK:"DEBUG\DZ.ILK" /NOLOGO KERNEL32.LIB USER32.LIB GDI32.LIB WINSPOOL.LIB COMDLG32.LIB ADVAPI32.LIB SHELL32.LIB OLE32.LIB OLEAUT32.LIB UUID.LIB ODBC32.LIB ODBCCP32.LIB /MANIFEST /MANIFESTUAC:"level='asInvoker' uiAccess='false'" /manifest:embed /DEBUG /PDB:"C:\USERS\LESHA\SOURCE\REPOS\DZ\DEBUG\DZ.PDB" /SUBSYSTEM:CONSOLE /TLBID:1 /DYNAMICBASE /NXCOMPAT /IMPLIB:"C:\USERS\LESHA\SOURCE\REPOS\DZ\DEBUG\DZ.LIB" /MACHINE:X86 DEBUG\DZ.OBJ
^C:\UEPROJECTS\TEST\DZ\DZ\DEBUG\DZ.OBJ
/OUT:"C:\UEPROJECTS\TEST\DZ\DEBUG\DZ.EXE" /INCREMENTAL /ILK:"DEBUG\DZ.ILK" /NOLOGO KERNEL32.LIB USER32.LIB GDI32.LIB WINSPOOL.LIB COMDLG32.LIB ADVAPI32.LIB SHELL32.LIB OLE32.LIB OLEAUT32.LIB UUID.LIB ODBC32.LIB ODBCCP32.LIB /MANIFEST /MANIFESTUAC:"level='asInvoker' uiAccess='false'" /manifest:embed /DEBUG /PDB:"C:\UEPROJECTS\TEST\DZ\DEBUG\DZ.PDB" /SUBSYSTEM:CONSOLE /TLBID:1 /DYNAMICBASE /NXCOMPAT /IMPLIB:"C:\UEPROJECTS\TEST\DZ\DEBUG\DZ.LIB" /MACHINE:X86 DEBUG\DZ.OBJ
